{
  "intents": [
    {
      "sentence": "Lạnh quá!",
      "tag": [
        {
          "name": "quạt",
          "action": "tắt",
          "room": "hiện tại",
          "floor": "hiện tại",
          "home": "hiện tại"
        }, 
        {
          "name": "máy lạnh",
          "action": "tắt",
          "room": "hiện tại",
          "floor": "hiện tại",
          "home": "hiện tại"
        }
      ]  
    },
    {
      "sentence": "Sao lầu 1 tối thế, bật hộ cái đèn với",
      "tag": [
        {
          "name": "đèn trần",
          "action": "bật",
          "room": "không",
          "floor": "lầu 1",
          "home": "hiện tại"
        }
      ]
    }
  ]
}

